{
  "name": "compressimage",
  "version": "1.0.0",
  "description": "",
  "main": "index.js",
  "scripts": {
    "test": "echo \"Error: no test specified\" && exit 1"
  },
  "author": "",
  "license": "ISC",
  "dependencies": {
    "async": "^2.1.4",
    "aws-sdk": "^2.7.21",
    "imagemin": "^5.2.2",
    "imagemin-jpegoptim": "^5.0.0",
    "imagemin-optipng": "^5.2.1"
  }
}
